verilog/07_yamin_pipe_my/wave.vcd
$date
	Fri Sep 23 19:28:19 2022
$end
$version
	Icarus Verilog
$end
$timescale
	1ns
$end
$scope module testbench $end
$var wire 1 ! wdi__ $end
$var wire 32 " wdi_ [31:0] $end
$var wire 32 # wdi [31:0] $end
$var wire 1 $ pc__ $end
$var wire 32 % pc_ [31:0] $end
$var wire 32 & pc [31:0] $end
$var wire 1 ' malu__ $end
$var wire 32 ( malu_ [31:0] $end
$var wire 32 ) malu [31:0] $end
$var wire 1 * inst__ $end
$var wire 32 + inst_ [31:0] $end
$var wire 32 , inst [31:0] $end
$var wire 1 - ealu__ $end
$var wire 32 . ealu_ [31:0] $end
$var wire 32 / ealu [31:0] $end
$var reg 1 0 clk $end
$var reg 1 1 clrn $end
$upscope $end
$enddefinitions $end
#0
$dumpvars
01
10
b0 /
b0 .
1-
b0 ,
b0 +
1*
b0 )
b0 (
1'
b0 &
b0 %
1$
b0 #
b0 "
1!
$end
#1
11
#2
00
#4
b111100000000010000000000000000 +
b100 %
1*
b111100000000010000000000000000 ,
1$
b100 &
10
#6
00
#8
b1000 &
b110100001001000000000001010000 ,
1$
b1000 %
1*
b110100001001000000000001010000 +
10
#10
00
#12
b1010000 .
1-
b1010000 /
b1100000000000000000000011011 +
b1100 %
1*
b1100000000000000000000011011 ,
1$
b1100 &
10
#14
00
#16
b10000 /
1-
b10000 .
b1101100 &
b100000000001010000000000000100 ,
b1010000 )
1$
b1101100 %
1*
b100000000001010000000000000100 +
1'
b1010000 (
10
#18
00
#20
b1010000 "
b100 .
1!
b1010000 #
1-
b100 /
b10000 (
b100000000100000 +
b1110000 %
1'
b10000 )
1*
b100000000100000 ,
1$
b1110000 &
10
#22
00
#24
b0 /
1-
b0 .
b10000 #
1!
b10000 "
b1110100 &
b10001100100010010000000000000000 ,
b100 )
1$
b1110100 %
1*
b10001100100010010000000000000000 +
1'
b100 (
10
#26
00
#28
b1010000 .
1-
b1010000 /
b100 "
1!
b100 #
b0 (
b1000010010100000000100000 +
b1111000 %
1'
b0 )
1*
b1000010010100000000100000 ,
1$
b1111000 &
10
#30
00
#32
b0 /
1-
b0 .
b0 #
1!
b0 "
b1010000 )
1'
b1010000 (
10
#34
00
#36
b10100011 .
1-
b10100011 /
b10100011 "
1!
b10100011 #
b0 (
b100000101001011111111111111111 +
b1111100 %
1'
b0 )
1*
b100000101001011111111111111111 ,
1$
b1111100 &
10
#38
00
#40
b11 /
1-
b11 .
b0 #
1!
b0 "
b10000000 &
b10100101000001111111111111100 ,
b10100011 )
1$
b10000000 %
1*
b10100101000001111111111111100 +
1'
b10100011 (
10
#42
00
#44
b11 .
1-
b11 /
b10100011 "
1!
b10100011 #
b11 (
b100000100001000000000000000100 +
b1110000 %
1'
b11 )
1*
b100000100001000000000000000100 ,
1$
b1110000 &
10
#46
00
#48
b1010100 /
1-
b1010100 .
b11 #
1!
b11 "
b1110100 &
b10001100100010010000000000000000 ,
1$
b1110100 %
1*
b10001100100010010000000000000000 +
10
#50
00
#52
1-
b1010100 /
b1010100 (
b1000010010100000000100000 +
b1111000 %
1'
b1010100 )
1*
b1000010010100000000100000 ,
1$
b1111000 &
10
#54
00
#56
b101000110 /
1-
b101000110 .
b1010100 #
1!
b1010100 "
10
#58
00
#60
b11001010 .
1-
b11001010 /
b100111 "
1!
b100111 #
b101000110 (
b100000101001011111111111111111 +
b1111100 %
1'
b101000110 )
1*
b100000101001011111111111111111 ,
1$
b1111100 &
10
#62
00
#64
b10 /
1-
b10 .
b101000110 #
1!
b101000110 "
b10000000 &
b10100101000001111111111111100 ,
b11001010 )
1$
b10000000 %
1*
b10100101000001111111111111100 +
1'
b11001010 (
10
#66
00
#68
b10 .
1-
b10 /
b11001010 "
1!
b11001010 #
b10 (
b100000100001000000000000000100 +
b1110000 %
1'
b10 )
1*
b100000100001000000000000000100 ,
1$
b1110000 &
10
#70
00
#72
b1011000 /
1-
b1011000 .
b10 #
1!
b10 "
b1110100 &
b10001100100010010000000000000000 ,
1$
b1110100 %
1*
b10001100100010010000000000000000 +
10
#74
00
#76
b1011000 .
1-
b1011000 /
b1011000 (
b1000010010100000000100000 +
b1111000 %
1'
b1011000 )
1*
b1000010010100000000100000 ,
1$
b1111000 &
10
#78
00
#80
b11110001 /
1-
b11110001 .
b1011000 #
1!
b1011000 "
10
#82
00
#84
b101000011 .
1-
b101000011 /
b1111001 "
1!
b1111001 #
b11110001 (
b100000101001011111111111111111 +
b1111100 %
1'
b11110001 )
1*
b100000101001011111111111111111 ,
1$
b1111100 &
10
#86
00
#88
b1 /
1-
b1 .
b11110001 #
1!
b11110001 "
b10000000 &
b10100101000001111111111111100 ,
b101000011 )
1$
b10000000 %
1*
b10100101000001111111111111100 +
1'
b101000011 (
10
#90
00
#92
b1 .
1-
b1 /
b101000011 "
1!
b101000011 #
b1 (
b100000100001000000000000000100 +
b1110000 %
1'
b1 )
1*
b100000100001000000000000000100 ,
1$
b1110000 &
10
#94
00
#96
b1011100 /
1-
b1011100 .
b1 #
1!
b1 "
b1110100 &
b10001100100010010000000000000000 ,
1$
b1110100 %
1*
b10001100100010010000000000000000 +
10
#98
00
#100
1-
b1011100 /
b1011100 (
b1000010010100000000100000 +
b1111000 %
1'
b1011100 )
1*
b1000010010100000000100000 ,
1$
b1111000 &
10
#102
00
#104
b110111100 /
1-
b110111100 .
b1011100 #
1!
b1011100 "
10
#106
00
#108
b1001011000 .
1-
b1001011000 /
b100010101 "
1!
b100010101 #
b110111100 (
b100000101001011111111111111111 +
b1111100 %
1'
b110111100 )
1*
b100000101001011111111111111111 ,
1$
b1111100 &
10
#110
00
#112
b0 /
1-
b0 .
b110111100 #
1!
b110111100 "
b10000000 &
b10100101000001111111111111100 ,
b1001011000 )
1$
b10000000 %
1*
b10100101000001111111111111100 +
1'
b1001011000 (
10
#114
00
#116
b0 .
1-
b0 /
b1001011000 "
1!
b1001011000 #
b0 (
b100000100001000000000000000100 +
b10000100 %
1'
b0 )
1*
b100000100001000000000000000100 ,
1$
b10000100 &
10
#118
00
#120
b1100000 /
1-
b1100000 .
b0 #
1!
b0 "
b10001000 &
b11111000000000000000001000 ,
1$
b10001000 %
1*
b11111000000000000000001000 +
10
#122
00
#124
b10000 .
1-
b10000 /
b1100000 (
b10000001000000000000 +
b10000 %
1'
b1100000 )
1*
b10000001000000000000 ,
1$
b10000 &
10
#126
00
#128
b1001011000 /
1-
b1001011000 .
b1100000 #
1!
b1100000 "
b10100 &
b10101100100000100000000000000000 ,
b10000 )
1$
b10100 %
1*
b10101100100000100000000000000000 +
1'
b10000 (
10
#130
00
#132
b1100000 .
1-
b1100000 /
b10000 "
1!
b10000 #
b1001011000 (
b10001100100010010000000000000000 +
b11000 %
1'
b1001011000 )
1*
b10001100100010010000000000000000 ,
1$
b11000 &
10
#134
00
#136
b1001011000 #
1!
b1001011000 "
b11100 &
b1001001000100000000100010 ,
b1100000 )
1$
b11100 %
1*
b1001001000100000000100010 +
1'
b1100000 (
10
#138
00
#140
b10110101 .
1-
b10110101 /
b1100000 "
1!
b1100000 #
10
#142
00
#144
b111111000 /
1-
b111111000 .
b1001011000 #
1!
b1001011000 "
b100000 &
b100000000001010000000000000011 ,
b10110101 )
1$
b100000 %
1*
b100000000001010000000000000011 +
1'
b10110101 (
10
#146
00
#148
b11 .
1-
b11 /
b10110101 "
1!
b10110101 #
b111111000 (
b100000101001011111111111111111 +
b100100 %
1'
b111111000 )
1*
b100000101001011111111111111111 ,
1$
b100100 &
10
#150
00
#152
b10 /
1-
b10 .
b111111000 #
1!
b111111000 "
b101000 &
b110100101010001111111111111111 ,
b11 )
1$
b101000 %
1*
b110100101010001111111111111111 +
1'
b11 (
10
#154
00
#156
b1111111111111111 .
1-
b1111111111111111 /
b11 "
1!
b11 #
b10 (
b111001000010000101010101010101 +
b101100 %
1'
b10 )
1*
b111001000010000101010101010101 ,
1$
b101100 &
10
#158
00
#160
b1010101010101010 /
1-
b1010101010101010 .
b10 #
1!
b10 "
b110000 &
b100000000010011111111111111111 ,
b1111111111111111 )
1$
b110000 %
1*
b100000000010011111111111111111 +
1'
b1111111111111111 (
10
#162
00
#164
b11111111111111111111111111111111 .
1-
b11111111111111111111111111111111 /
b1111111111111111 "
1!
b1111111111111111 #
b1010101010101010 (
b110001001010101111111111111111 +
b110100 %
1'
b1010101010101010 )
1*
b110001001010101111111111111111 ,
1$
b110100 &
10
#166
00
#168
b1111111111111111 /
1-
b1111111111111111 .
b1010101010101010 #
1!
b1010101010101010 "
b111000 &
b1010010010011000000100101 ,
b11111111111111111111111111111111 )
1$
b111000 %
1*
b1010010010011000000100101 +
1'
b11111111111111111111111111111111 (
10
#170
00
#172
b11111111111111111111111111111111 .
1-
b11111111111111111111111111111111 /
b11111111111111111111111111111111 "
1!
b11111111111111111111111111111111 #
b1111111111111111 (
b1010010010100000000100110 +
b111100 %
1'
b1111111111111111 )
1*
b1010010010100000000100110 ,
1$
b111100 &
10
#174
00
#176
b11111111111111110000000000000000 /
1-
b11111111111111110000000000000000 .
b1111111111111111 #
1!
b1111111111111111 "
b1000000 &
b1010001100011100000100100 ,
b11111111111111111111111111111111 )
1$
b1000000 %
1*
b1010001100011100000100100 +
1'
b11111111111111111111111111111111 (
10
#178
00
#180
b1111111111111111 .
1-
b1111111111111111 /
b11111111111111111111111111111111 "
1!
b11111111111111111111111111111111 #
b11111111111111110000000000000000 (
b10000101000000000000000000011 +
b1000100 %
1'
b11111111111111110000000000000000 )
1*
b10000101000000000000000000011 ,
1$
b1000100 &
10
#182
00
#184
b10 /
1-
b10 .
b11111111111111110000000000000000 #
1!
b11111111111111110000000000000000 "
b1001000 &
b0 ,
b1111111111111111 )
1$
b1001000 %
1*
b0 +
1'
b1111111111111111 (
10
#186
00
#188
b0 .
1-
b0 /
b1111111111111111 "
1!
b1111111111111111 #
b10 (
b1000000000000000000000001000 +
b1001100 %
1'
b10 )
1*
b1000000000000000000000001000 ,
1$
b1001100 &
10
#190
00
#192
b10 #
1!
b10 "
b100000 &
b0 ,
b0 )
1$
b100000 %
1*
b0 +
1'
b0 (
10
#194
00
#196
b0 "
1!
b0 #
b100000101001011111111111111111 +
b100100 %
1*
b100000101001011111111111111111 ,
1$
b100100 &
10
#198
00
#200
b1 /
1-
b1 .
b101000 &
b110100101010001111111111111111 ,
1$
b101000 %
1*
b110100101010001111111111111111 +
10
#202
00
#204
b1111111111111111 .
1-
b1111111111111111 /
b1 (
b111001000010000101010101010101 +
b101100 %
1'
b1 )
1*
b111001000010000101010101010101 ,
1$
b101100 &
10
#206
00
#208
b1010101010101010 /
1-
b1010101010101010 .
b1 #
1!
b1 "
b110000 &
b100000000010011111111111111111 ,
b1111111111111111 )
1$
b110000 %
1*
b100000000010011111111111111111 +
1'
b1111111111111111 (
10
#210
00
#212
b11111111111111111111111111111111 .
1-
b11111111111111111111111111111111 /
b1111111111111111 "
1!
b1111111111111111 #
b1010101010101010 (
b110001001010101111111111111111 +
b110100 %
1'
b1010101010101010 )
1*
b110001001010101111111111111111 ,
1$
b110100 &
10
#214
00
#216
b1111111111111111 /
1-
b1111111111111111 .
b1010101010101010 #
1!
b1010101010101010 "
b111000 &
b1010010010011000000100101 ,
b11111111111111111111111111111111 )
1$
b111000 %
1*
b1010010010011000000100101 +
1'
b11111111111111111111111111111111 (
10
#218
00
#220
b11111111111111111111111111111111 .
1-
b11111111111111111111111111111111 /
b11111111111111111111111111111111 "
1!
b11111111111111111111111111111111 #
b1111111111111111 (
b1010010010100000000100110 +
b111100 %
1'
b1111111111111111 )
1*
b1010010010100000000100110 ,
1$
b111100 &
10
#222
00
#224
b11111111111111110000000000000000 /
1-
b11111111111111110000000000000000 .
b1111111111111111 #
1!
b1111111111111111 "
b1000000 &
b1010001100011100000100100 ,
b11111111111111111111111111111111 )
1$
b1000000 %
1*
b1010001100011100000100100 +
1'
b11111111111111111111111111111111 (
10
#226
00
#228
b1111111111111111 .
1-
b1111111111111111 /
b11111111111111111111111111111111 "
1!
b11111111111111111111111111111111 #
b11111111111111110000000000000000 (
b10000101000000000000000000011 +
b1000100 %
1'
b11111111111111110000000000000000 )
1*
b10000101000000000000000000011 ,
1$
b1000100 &
10
#230
00
#232
b1 /
1-
b1 .
b11111111111111110000000000000000 #
1!
b11111111111111110000000000000000 "
b1001000 &
b0 ,
b1111111111111111 )
1$
b1001000 %
1*
b0 +
1'
b1111111111111111 (
10
#234
00
#236
b0 .
1-
b0 /
b1111111111111111 "
1!
b1111111111111111 #
b1 (
b1000000000000000000000001000 +
b1001100 %
1'
b1 )
1*
b1000000000000000000000001000 ,
1$
b1001100 &
10
#238
00
#240
b1 #
1!
b1 "
b100000 &
b0 ,
b0 )
1$
b100000 %
1*
b0 +
1'
b0 (
10
#242
00
#244
b0 "
1!
b0 #
b100000101001011111111111111111 +
b100100 %
1*
b100000101001011111111111111111 ,
1$
b100100 &
10
#246
00
#248
b0 /
1-
b0 .
b101000 &
b110100101010001111111111111111 ,
1$
b101000 %
1*
b110100101010001111111111111111 +
10
#250
00
#252
b1111111111111111 .
1-
b1111111111111111 /
b111001000010000101010101010101 +
b101100 %
1*
b111001000010000101010101010101 ,
1$
b101100 &
10
#254
00
#256
b1010101010101010 .
1-
b1010101010101010 /
b110000 &
b100000000010011111111111111111 ,
b1111111111111111 )
1$
b110000 %
1*
b100000000010011111111111111111 +
1'
b1111111111111111 (
10
#258
00
#260
b11111111111111111111111111111111 .
1-
b11111111111111111111111111111111 /
b1111111111111111 "
1!
b1111111111111111 #
b1010101010101010 (
b110001001010101111111111111111 +
b110100 %
1'
b1010101010101010 )
1*
b110001001010101111111111111111 ,
1$
b110100 &
10
#262
00
#264
b1111111111111111 /
1-
b1111111111111111 .
b1010101010101010 #
1!
b1010101010101010 "
b111000 &
b1010010010011000000100101 ,
b11111111111111111111111111111111 )
1$
b111000 %
1*
b1010010010011000000100101 +
1'
b11111111111111111111111111111111 (
10
#266
00
#268
b11111111111111111111111111111111 .
1-
b11111111111111111111111111111111 /
b11111111111111111111111111111111 "
1!
b11111111111111111111111111111111 #
b1111111111111111 (
b1010010010100000000100110 +
b111100 %
1'
b1111111111111111 )
1*
b1010010010100000000100110 ,
1$
b111100 &
10
#270
00
#272
b11111111111111110000000000000000 /
1-
b11111111111111110000000000000000 .
b1111111111111111 #
1!
b1111111111111111 "
b1000000 &
b1010001100011100000100100 ,
b11111111111111111111111111111111 )
1$
b1000000 %
1*
b1010001100011100000100100 +
1'
b11111111111111111111111111111111 (
10
#274
00
#276
b1111111111111111 .
1-
b1111111111111111 /
b11111111111111111111111111111111 "
1!
b11111111111111111111111111111111 #
b11111111111111110000000000000000 (
b10000101000000000000000000011 +
b1000100 %
1'
b11111111111111110000000000000000 )
1*
b10000101000000000000000000011 ,
1$
b1000100 &
10
#278
00
#280
b0 /
1-
b0 .
b11111111111111110000000000000000 #
1!
b11111111111111110000000000000000 "
b1010000 &
b0 ,
b1111111111111111 )
1$
b1010000 %
1*
b0 +
1'
b1111111111111111 (
10
#282
00
#284
b1111111111111111 "
1!
b1111111111111111 #
b0 (
b100000000001011111111111111111 +
b1010100 %
1'
b0 )
1*
b100000000001011111111111111111 ,
1$
b1010100 &
10
#286
00
#288
b11111111111111111111111111111111 /
1-
b11111111111111111111111111111111 .
b0 #
1!
b0 "
b1011000 &
b1010100001111000000 ,
1$
b1011000 %
1*
b1010100001111000000 +
10
#290
00
#292
b11111111111111111000000000000000 .
1-
b11111111111111111000000000000000 /
b11111111111111111111111111111111 (
b10000100010000000000 +
b1011100 %
1'
b11111111111111111111111111111111 )
1*
b10000100010000000000 ,
1$
b1011100 &
10
#294
00
#296
b10000000000000000000000000000000 /
1-
b10000000000000000000000000000000 .
b11111111111111111111111111111111 #
1!
b11111111111111111111111111111111 "
b1100000 &
b10000100010000000011 ,
b11111111111111111000000000000000 )
1$
b1100000 %
1*
b10000100010000000011 +
1'
b11111111111111111000000000000000 (
10
#298
00
#300
b11111111111111111000000000000000 .
1-
b11111111111111111000000000000000 /
b11111111111111111000000000000000 "
1!
b11111111111111111000000000000000 #
b10000000000000000000000000000000 (
b10000100001111000010 +
b1100100 %
1'
b10000000000000000000000000000000 )
1*
b10000100001111000010 ,
1$
b1100100 &
10
#302
00
#304
b11111111111111111 /
1-
b11111111111111111 .
b10000000000000000000000000000000 #
1!
b10000000000000000000000000000000 "
b1101000 &
b1000000000000000000000011001 ,
b11111111111111111000000000000000 )
1$
b1101000 %
1*
b1000000000000000000000011001 +
1'
b11111111111111111000000000000000 (
10
#306
00
#308
b0 .
1-
b0 /
b11111111111111111000000000000000 "
1!
b11111111111111111000000000000000 #
b11111111111111111 (
b0 +
b1100100 %
1'
b11111111111111111 )
1*
b0 ,
1$
b1100100 &
10
#310
00
#312
b11111111111111111 #
1!
b11111111111111111 "
b1101000 &
b1000000000000000000000011001 ,
b0 )
1$
b1101000 %
1*
b1000000000000000000000011001 +
1'
b0 (
10
#314
00
#316
b0 "
1!
b0 #
b0 +
b1100100 %
1*
b0 ,
1$
b1100100 &
10
#318
00
#320
b1101000 &
b1000000000000000000000011001 ,
1$
b1101000 %
1*
b1000000000000000000000011001 +
10
#322
00
#324
b0 +
b1100100 %
1*
b0 ,
1$
b1100100 &
10
#326
00
#328
b1101000 &
b1000000000000000000000011001 ,
1$
b1101000 %
1*
b1000000000000000000000011001 +
10
#330
00
#332
b0 +
b1100100 %
1*
b0 ,
1$
b1100100 &
10
#334
00
#336
b1101000 &
b1000000000000000000000011001 ,
1$
b1101000 %
1*
b1000000000000000000000011001 +
10
