verilog/07_yamin_pipe_my/07_yamin_pipe_orig/wave.vcd
$date
	Fri Sep 23 12:26:31 2022
$end
$version
	Icarus Verilog
$end
$timescale
	1ns
$end
$scope module testbench $end
$var wire 32 ! wdi [31:0] $end
$var wire 32 " pc [31:0] $end
$var wire 32 # malu [31:0] $end
$var wire 32 $ inst [31:0] $end
$var wire 32 % ealu [31:0] $end
$var reg 1 & clk $end
$var reg 1 ' clrn $end
$upscope $end
$enddefinitions $end
#0
$dumpvars
0'
1&
b0 %
b0 $
b0 #
b0 "
b0 !
$end
#1
1'
#2
0&
#4
b111100000000010000000000000000 $
b100 "
1&
#6
0&
#8
b1000 "
b110100001001000000000001010000 $
1&
#10
0&
#12
b1010000 %
b1100000000000000000000011011 $
b1100 "
1&
#14
0&
#16
b10000 %
b1101100 "
b100000000001010000000000000100 $
b1010000 #
1&
#18
0&
#20
b1010000 !
b100 %
b10000 #
b100000000100000 $
b1110000 "
1&
#22
0&
#24
b0 %
b10000 !
b1110100 "
b10001100100010010000000000000000 $
b100 #
1&
#26
0&
#28
b1010000 %
b100 !
b0 #
b1000010010100000000100000 $
b1111000 "
1&
#30
0&
#32
b0 %
b0 !
b1010000 #
1&
#34
0&
#36
b10100011 %
b10100011 !
b0 #
b100000101001011111111111111111 $
b1111100 "
1&
#38
0&
#40
b11 %
b0 !
b10000000 "
b10100101000001111111111111100 $
b10100011 #
1&
#42
0&
#44
b11 %
b10100011 !
b11 #
b100000100001000000000000000100 $
b1110000 "
1&
#46
0&
#48
b1010100 %
b11 !
b1110100 "
b10001100100010010000000000000000 $
1&
#50
0&
#52
b1010100 %
b1010100 #
b1000010010100000000100000 $
b1111000 "
1&
#54
0&
#56
b101000110 %
b1010100 !
1&
#58
0&
#60
b11001010 %
b100111 !
b101000110 #
b100000101001011111111111111111 $
b1111100 "
1&
#62
0&
#64
b10 %
b101000110 !
b10000000 "
b10100101000001111111111111100 $
b11001010 #
1&
#66
0&
#68
b10 %
b11001010 !
b10 #
b100000100001000000000000000100 $
b1110000 "
1&
#70
0&
#72
b1011000 %
b10 !
b1110100 "
b10001100100010010000000000000000 $
1&
#74
0&
#76
b1011000 %
b1011000 #
b1000010010100000000100000 $
b1111000 "
1&
#78
0&
#80
b11110001 %
b1011000 !
1&
#82
0&
#84
b101000011 %
b1111001 !
b11110001 #
b100000101001011111111111111111 $
b1111100 "
1&
#86
0&
#88
b1 %
b11110001 !
b10000000 "
b10100101000001111111111111100 $
b101000011 #
1&
#90
0&
#92
b1 %
b101000011 !
b1 #
b100000100001000000000000000100 $
b1110000 "
1&
#94
0&
#96
b1011100 %
b1 !
b1110100 "
b10001100100010010000000000000000 $
1&
#98
0&
#100
b1011100 %
b1011100 #
b1000010010100000000100000 $
b1111000 "
1&
#102
0&
#104
b110111100 %
b1011100 !
1&
#106
0&
#108
b1001011000 %
b100010101 !
b110111100 #
b100000101001011111111111111111 $
b1111100 "
1&
#110
0&
#112
b0 %
b110111100 !
b10000000 "
b10100101000001111111111111100 $
b1001011000 #
1&
#114
0&
#116
b0 %
b1001011000 !
b0 #
b100000100001000000000000000100 $
b10000100 "
1&
#118
0&
#120
b1100000 %
b0 !
b10001000 "
b11111000000000000000001000 $
1&
#122
0&
#124
b10000 %
b1100000 #
b10000001000000000000 $
b10000 "
1&
#126
0&
#128
b1001011000 %
b1100000 !
b10100 "
b10101100100000100000000000000000 $
b10000 #
1&
#130
0&
#132
b1100000 %
b10000 !
b1001011000 #
b10001100100010010000000000000000 $
b11000 "
1&
#134
0&
#136
b1001011000 !
b11100 "
b1001001000100000000100010 $
b1100000 #
1&
#138
0&
#140
b10110101 %
b1100000 !
1&
#142
0&
#144
b111111000 %
b1001011000 !
b100000 "
b100000000001010000000000000011 $
b10110101 #
1&
#146
0&
#148
b11 %
b10110101 !
b111111000 #
b100000101001011111111111111111 $
b100100 "
1&
#150
0&
#152
b10 %
b111111000 !
b101000 "
b110100101010001111111111111111 $
b11 #
1&
#154
0&
#156
b1111111111111111 %
b11 !
b10 #
b111001000010000101010101010101 $
b101100 "
1&
#158
0&
#160
b1010101010101010 %
b10 !
b110000 "
b100000000010011111111111111111 $
b1111111111111111 #
1&
#162
0&
#164
b11111111111111111111111111111111 %
b1111111111111111 !
b1010101010101010 #
b110001001010101111111111111111 $
b110100 "
1&
#166
0&
#168
b1111111111111111 %
b1010101010101010 !
b111000 "
b1010010010011000000100101 $
b11111111111111111111111111111111 #
1&
#170
0&
#172
b11111111111111111111111111111111 %
b11111111111111111111111111111111 !
b1111111111111111 #
b1010010010100000000100110 $
b111100 "
1&
#174
0&
#176
b11111111111111110000000000000000 %
b1111111111111111 !
b1000000 "
b1010001100011100000100100 $
b11111111111111111111111111111111 #
1&
#178
0&
#180
b1111111111111111 %
b11111111111111111111111111111111 !
b11111111111111110000000000000000 #
b10000101000000000000000000011 $
b1000100 "
1&
#182
0&
#184
b10 %
b11111111111111110000000000000000 !
b1001000 "
b0 $
b1111111111111111 #
1&
#186
0&
#188
b0 %
b1111111111111111 !
b10 #
b1000000000000000000000001000 $
b1001100 "
1&
#190
0&
#192
b10 !
b100000 "
b0 $
b0 #
1&
#194
0&
#196
b0 !
b100000101001011111111111111111 $
b100100 "
1&
#198
0&
#200
b1 %
b101000 "
b110100101010001111111111111111 $
1&
#202
0&
#204
b1111111111111111 %
b1 #
b111001000010000101010101010101 $
b101100 "
1&
#206
0&
#208
b1010101010101010 %
b1 !
b110000 "
b100000000010011111111111111111 $
b1111111111111111 #
1&
#210
0&
#212
b11111111111111111111111111111111 %
b1111111111111111 !
b1010101010101010 #
b110001001010101111111111111111 $
b110100 "
1&
#214
0&
#216
b1111111111111111 %
b1010101010101010 !
b111000 "
b1010010010011000000100101 $
b11111111111111111111111111111111 #
1&
#218
0&
#220
b11111111111111111111111111111111 %
b11111111111111111111111111111111 !
b1111111111111111 #
b1010010010100000000100110 $
b111100 "
1&
#222
0&
#224
b11111111111111110000000000000000 %
b1111111111111111 !
b1000000 "
b1010001100011100000100100 $
b11111111111111111111111111111111 #
1&
#226
0&
#228
b1111111111111111 %
b11111111111111111111111111111111 !
b11111111111111110000000000000000 #
b10000101000000000000000000011 $
b1000100 "
1&
#230
0&
#232
b1 %
b11111111111111110000000000000000 !
b1001000 "
b0 $
b1111111111111111 #
1&
#234
0&
#236
b0 %
b1111111111111111 !
b1 #
b1000000000000000000000001000 $
b1001100 "
1&
#238
0&
#240
b1 !
b100000 "
b0 $
b0 #
1&
#242
0&
#244
b0 !
b100000101001011111111111111111 $
b100100 "
1&
#246
0&
#248
b0 %
b101000 "
b110100101010001111111111111111 $
1&
#250
0&
#252
b1111111111111111 %
b111001000010000101010101010101 $
b101100 "
1&
#254
0&
#256
b1010101010101010 %
b110000 "
b100000000010011111111111111111 $
b1111111111111111 #
1&
#258
0&
#260
b11111111111111111111111111111111 %
b1111111111111111 !
b1010101010101010 #
b110001001010101111111111111111 $
b110100 "
1&
#262
0&
#264
b1111111111111111 %
b1010101010101010 !
b111000 "
b1010010010011000000100101 $
b11111111111111111111111111111111 #
1&
#266
0&
#268
b11111111111111111111111111111111 %
b11111111111111111111111111111111 !
b1111111111111111 #
b1010010010100000000100110 $
b111100 "
1&
#270
0&
#272
b11111111111111110000000000000000 %
b1111111111111111 !
b1000000 "
b1010001100011100000100100 $
b11111111111111111111111111111111 #
1&
#274
0&
#276
b1111111111111111 %
b11111111111111111111111111111111 !
b11111111111111110000000000000000 #
b10000101000000000000000000011 $
b1000100 "
1&
#278
0&
#280
b0 %
b11111111111111110000000000000000 !
b1010000 "
b0 $
b1111111111111111 #
1&
#282
0&
#284
b1111111111111111 !
b0 #
b100000000001011111111111111111 $
b1010100 "
1&
#286
0&
#288
b11111111111111111111111111111111 %
b0 !
b1011000 "
b1010100001111000000 $
1&
#290
0&
#292
b11111111111111111000000000000000 %
b11111111111111111111111111111111 #
b10000100010000000000 $
b1011100 "
1&
#294
0&
#296
b10000000000000000000000000000000 %
b11111111111111111111111111111111 !
b1100000 "
b10000100010000000011 $
b11111111111111111000000000000000 #
1&
#298
0&
#300
b11111111111111111000000000000000 %
b11111111111111111000000000000000 !
b10000000000000000000000000000000 #
b10000100001111000010 $
b1100100 "
1&
#302
0&
#304
b11111111111111111 %
b10000000000000000000000000000000 !
b1101000 "
b1000000000000000000000011001 $
b11111111111111111000000000000000 #
1&
#306
0&
#308
b0 %
b11111111111111111000000000000000 !
b11111111111111111 #
b0 $
b1100100 "
1&
#310
0&
#312
b11111111111111111 !
b1101000 "
b1000000000000000000000011001 $
b0 #
1&
#314
0&
#316
b0 !
b0 $
b1100100 "
1&
#318
0&
#320
b1101000 "
b1000000000000000000000011001 $
1&
#322
0&
#324
b0 $
b1100100 "
1&
#326
0&
#328
b1101000 "
b1000000000000000000000011001 $
1&
#330
0&
#332
b0 $
b1100100 "
1&
#334
0&
#336
b1101000 "
b1000000000000000000000011001 $
1&
