verilog/08_yamin_pipe_intr_my/wave.vcd
$date
	Sat Sep 24 20:46:10 2022
$end
$version
	Icarus Verilog
$end
$timescale
	1ns
$end
$scope module testbench $end
$var wire 1 ! inta__ $end
$var wire 1 " wdi__ $end
$var wire 32 # wdi_ [31:0] $end
$var wire 32 $ wdi [31:0] $end
$var wire 1 % pc__ $end
$var wire 32 & pc_ [31:0] $end
$var wire 32 ' pc [31:0] $end
$var wire 1 ( malu__ $end
$var wire 32 ) malu_ [31:0] $end
$var wire 32 * malu [31:0] $end
$var wire 1 + inta_ $end
$var wire 1 , inta $end
$var wire 1 - inst__ $end
$var wire 32 . inst_ [31:0] $end
$var wire 32 / inst [31:0] $end
$var wire 1 0 ealu__ $end
$var wire 32 1 ealu_ [31:0] $end
$var wire 32 2 ealu [31:0] $end
$var reg 1 3 clk $end
$var reg 1 4 clrn $end
$var reg 1 5 intr $end
$upscope $end
$enddefinitions $end
#0
$dumpvars
05
04
13
b0 2
b0 1
10
b0 /
b0 .
1-
0,
0+
b0 *
b0 )
1(
b0 '
b0 &
1%
b0 $
b0 #
1"
1!
$end
#1
14
#2
03
#4
b1000000000000000000000011101 .
b100 &
1-
b1000000000000000000000011101 /
1%
b100 '
13
#6
03
#8
b1110100 '
b0 /
1%
b1110100 &
1-
b0 .
13
#10
03
#12
b100000000010000000000000001111 .
b1111000 &
1-
b100000000010000000000000001111 /
1%
b1111000 '
13
#14
03
#16
b1111 2
10
b1111 1
b1111100 '
b1000000100010000110000000000000 /
1%
b1111100 &
1-
b1000000100010000110000000000000 .
13
#18
03
#20
b1111 )
b1001010000000000000011010 .
b10000000 &
1(
b1111 *
1-
b1001010000000000000011010 /
1%
b10000000 '
13
#22
03
#24
b1111 $
1"
b1111 #
b1000 '
b0 /
1%
b1000 &
1-
b0 .
13
#26
03
#28
b0 2
10
b0 1
b1000000000110100110100000000000 .
b1100 &
1-
b1000000000110100110100000000000 /
1%
b1100 '
13
#30
03
#32
b1000 2
10
b1000 1
b10000 '
b110011010110110000000000001100 /
b0 *
1%
b10000 &
1-
b110011010110110000000000001100 .
1(
b0 )
13
#34
03
#36
b1000 1
10
b1000 2
b0 #
1"
b0 $
b1000 )
b10001111011110110000000000100000 .
b10100 &
1(
b1000 *
1-
b10001111011110110000000000100000 /
1%
b10100 '
13
#38
03
#40
b101000 2
10
b101000 1
b1000 $
1"
b1000 #
b11000 '
b0 /
1%
b11000 &
1-
b0 .
13
#42
03
#44
b0 1
10
b0 2
b101000 )
b11011000000000000000001000 .
b11100 &
1(
b101000 *
1-
b11011000000000000000001000 /
1%
b11100 '
13
#46
03
#48
b1010100 2
10
b1010100 1
b1010100 $
1"
b1010100 #
b1010100 '
b0 /
b0 *
1%
b1010100 &
1-
b0 .
1(
b0 )
13
#50
03
#52
b0 1
10
b0 2
b0 #
1"
b0 $
b1010100 )
b1011000 &
1(
b1010100 *
1%
b1011000 '
13
#54
03
#56
b1010100 $
1"
b1010100 #
b1011100 '
b1000000000000000000000010000 /
b0 *
1%
b1011100 &
1-
b1000000000000000000000010000 .
1(
b0 )
13
#58
03
#60
b0 #
1"
b0 $
b0 .
b1000000 &
1-
b0 /
1%
b1000000 '
13
#62
03
#64
b1000100 '
b1000000000110100111000000000000 /
1%
b1000100 &
1-
b1000000000110100111000000000000 .
13
#66
03
#68
b1111100 1
10
b1111100 2
b100011010110100000000000000100 .
b1001000 &
1-
b100011010110100000000000000100 /
1%
b1001000 '
13
#70
03
#72
b10000000 2
10
b10000000 1
b1001100 '
b1000000100110100111000000000000 /
b1111100 *
1%
b1001100 &
1-
b1000000100110100111000000000000 .
1(
b1111100 )
13
#74
03
#76
b10000000 1
10
b10000000 2
b1111100 #
1"
b1111100 $
b10000000 )
b1000010000000000000000000011000 .
b1010000 &
1(
b10000000 *
1-
b1000010000000000000000000011000 /
1%
b1010000 '
13
#78
03
#80
b0 2
10
b0 1
b10000000 $
1"
b10000000 #
b10000000 '
b0 /
1%
b10000000 &
1-
b0 .
13
#82
03
#84
b0 )
b10000100 &
1(
b0 *
1%
b10000100 '
13
#86
03
#88
b0 $
1"
b0 #
b10001000 '
b1100 /
1%
b10001000 &
1-
b1100 .
13
#90
03
#92
b0 .
b1000 &
1-
b0 /
1%
b1000 '
13
#94
03
#96
b1100 '
b1000000000110100110100000000000 /
1%
b1100 &
1-
b1000000000110100110100000000000 .
13
#98
03
#100
b100 1
10
b100 2
b110011010110110000000000001100 .
b10000 &
1-
b110011010110110000000000001100 /
1%
b10000 '
13
#102
03
#104
b100 2
10
b100 1
b10100 '
b10001111011110110000000000100000 /
b100 *
1%
b10100 &
1-
b10001111011110110000000000100000 .
1(
b100 )
13
#106
03
#108
b100100 1
10
b100100 2
b100 #
1"
b100 $
b0 .
b11000 &
1-
b0 /
1%
b11000 '
13
#110
03
#112
b0 2
10
b0 1
b11100 '
b11011000000000000000001000 /
b100100 *
1%
b11100 &
1-
b11011000000000000000001000 .
1(
b100100 )
13
#114
03
#116
b111100 1
10
b111100 2
b111100 #
1"
b111100 $
b0 )
b0 .
b111100 &
1(
b0 *
1-
b0 /
1%
b111100 '
13
#118
03
#120
b0 2
10
b0 1
b0 $
1"
b0 #
b1000000 '
b111100 *
1%
b1000000 &
1(
b111100 )
13
#122
03
#124
b111100 #
1"
b111100 $
b0 )
b1000000000110100111000000000000 .
b1000100 &
1(
b0 *
1-
b1000000000110100111000000000000 /
1%
b1000100 '
13
#126
03
#128
b10000100 2
10
b10000100 1
b0 $
1"
b0 #
b1001000 '
b100011010110100000000000000100 /
1%
b1001000 &
1-
b100011010110100000000000000100 .
13
#130
03
#132
b10001000 1
10
b10001000 2
b10000100 )
b1000000100110100111000000000000 .
b1001100 &
1(
b10000100 *
1-
b1000000100110100111000000000000 /
1%
b1001100 '
13
#134
03
#136
b10001000 2
10
b10001000 1
b10000100 $
1"
b10000100 #
b1010000 '
b1000010000000000000000000011000 /
b10001000 *
1%
b1010000 &
1-
b1000010000000000000000000011000 .
1(
b10001000 )
13
#138
03
#140
b0 1
10
b0 2
b10001000 #
1"
b10001000 $
b0 .
b10001000 &
1-
b0 /
1%
b10001000 '
13
#142
03
#144
b10001100 '
b0 *
1%
b10001100 &
1(
b0 )
13
#146
03
#148
b0 #
1"
b0 $
b110100000001000000000001010000 .
b10010000 &
1-
b110100000001000000000001010000 /
1%
b10010000 '
13
#150
03
15
#152
b1010000 2
10
b1010000 1
1,
1+
b10010100 '
b100000000001010000000000000100 /
1%
b10010100 &
1-
b100000000001010000000000000100 .
13
#154
03
#156
b100 1
10
b100 2
0+
0,
b1010000 )
b100000000100000 .
b1000 &
1(
b1010000 *
1-
b100000000100000 /
1%
b1000 '
13
#158
03
05
#160
b0 2
10
b0 1
b1010000 $
1"
b1010000 #
b1100 '
b1000000000110100110100000000000 /
b100 *
1%
b1100 &
1-
b1000000000110100110100000000000 .
1(
b100 )
13
#162
03
#164
b100 #
1"
b100 $
b0 )
b110011010110110000000000001100 .
b10000 &
1(
b0 *
1-
b110011010110110000000000001100 /
1%
b10000 '
13
#166
03
#168
b0 2
10
b0 1
b0 $
1"
b0 #
b10100 '
b10001111011110110000000000100000 /
1%
b10100 &
1-
b10001111011110110000000000100000 .
13
#170
03
#172
b100000 1
10
b100000 2
b0 .
b11000 &
1-
b0 /
1%
b11000 '
13
#174
03
#176
b0 2
10
b0 1
b11100 '
b11011000000000000000001000 /
b100000 *
1%
b11100 &
1-
b11011000000000000000001000 .
1(
b100000 )
13
#178
03
#180
b110000 1
10
b110000 2
b110000 #
1"
b110000 $
b0 )
b0 .
b110000 &
1(
b0 *
1-
b0 /
1%
b110000 '
13
#182
03
#184
b0 2
10
b0 1
b0 $
1"
b0 #
b110100 '
b110000 *
1%
b110100 &
1(
b110000 )
13
#186
03
#188
b110000 #
1"
b110000 $
b0 )
b1000010000000000000000000011000 .
b111000 &
1(
b0 *
1-
b1000010000000000000000000011000 /
1%
b111000 '
13
#190
03
#192
b0 $
1"
b0 #
b10010100 '
b0 /
1%
b10010100 &
1-
b0 .
13
#194
03
#196
b100000000100000 .
b10011000 &
1-
b100000000100000 /
1%
b10011000 '
13
#198
03
#200
b10011100 '
b10001100100010010000000000000000 /
1%
b10011100 &
1-
b10001100100010010000000000000000 .
13
#202
03
#204
b1010000 1
10
b1010000 2
b1000010010100000000100000 .
b10100000 &
1-
b1000010010100000000100000 /
1%
b10100000 '
13
#206
03
#208
b0 2
10
b0 1
b1010000 *
1(
b1010000 )
13
#210
03
#212
b10100011 1
10
b10100011 2
b10100011 #
1"
b10100011 $
b0 )
b100000101001011111111111111111 .
b10100100 &
1(
b0 *
1-
b100000101001011111111111111111 /
1%
b10100100 '
13
#214
03
15
#216
b11 2
10
b11 1
1,
b0 $
1+
1"
b0 #
b10101000 '
b10100101000001111111111111100 /
b10100011 *
1%
b10101000 &
1-
b10100101000001111111111111100 .
1(
b10100011 )
13
#218
03
#220
b11 1
10
b11 2
0+
0,
b10100011 #
1"
b10100011 $
b11 )
b100000100001000000000000000100 .
b1000 &
1(
b11 *
1-
b100000100001000000000000000100 /
1%
b1000 '
13
#222
03
05
#224
b1010100 2
10
b1010100 1
b11 $
1"
b11 #
b1100 '
b1000000000110100110100000000000 /
1%
b1100 &
1-
b1000000000110100110100000000000 .
13
#226
03
#228
b0 1
10
b0 2
b1010100 )
b110011010110110000000000001100 .
b10000 &
1(
b1010100 *
1-
b110011010110110000000000001100 /
1%
b10000 '
13
#230
03
#232
b0 2
10
b0 1
b1010100 $
1"
b1010100 #
b10100 '
b10001111011110110000000000100000 /
b0 *
1%
b10100 &
1-
b10001111011110110000000000100000 .
1(
b0 )
13
#234
03
#236
b100000 1
10
b100000 2
b0 #
1"
b0 $
b0 .
b11000 &
1-
b0 /
1%
b11000 '
13
#238
03
#240
b0 2
10
b0 1
b11100 '
b11011000000000000000001000 /
b100000 *
1%
b11100 &
1-
b11011000000000000000001000 .
1(
b100000 )
13
#242
03
#244
b110000 1
10
b110000 2
b110000 #
1"
b110000 $
b0 )
b0 .
b110000 &
1(
b0 *
1-
b0 /
1%
b110000 '
13
#246
03
#248
b0 2
10
b0 1
b0 $
1"
b0 #
b110100 '
b110000 *
1%
b110100 &
1(
b110000 )
13
#250
03
#252
b110000 #
1"
b110000 $
b0 )
b1000010000000000000000000011000 .
b111000 &
1(
b0 *
1-
b1000010000000000000000000011000 /
1%
b111000 '
13
#254
03
#256
b0 $
1"
b0 #
b10100100 '
b0 /
1%
b10100100 &
1-
b0 .
13
#258
03
#260
b10100101000001111111111111100 .
b10101000 &
1-
b10100101000001111111111111100 /
1%
b10101000 '
13
#262
03
#264
b11 2
10
b11 1
b10011000 '
b100000100001000000000000000100 /
1%
b10011000 &
1-
b100000100001000000000000000100 .
13
#266
03
#268
b1010100 1
10
b1010100 2
b11 )
b10001100100010010000000000000000 .
b10011100 &
1(
b11 *
1-
b10001100100010010000000000000000 /
1%
b10011100 '
13
#270
03
#272
b1010100 2
10
b1010100 1
b11 $
1"
b11 #
b10100000 '
b1000010010100000000100000 /
b1010100 *
1%
b10100000 &
1-
b1000010010100000000100000 .
1(
b1010100 )
13
#274
03
#276
b101000110 1
10
b101000110 2
b1010100 #
1"
b1010100 $
13
#278
03
#280
b11001010 2
10
b11001010 1
b100111 $
1"
b100111 #
b10100100 '
b100000101001011111111111111111 /
b101000110 *
1%
b10100100 &
1-
b100000101001011111111111111111 .
1(
b101000110 )
13
#282
03
#284
b10 1
10
b10 2
b101000110 #
1"
b101000110 $
b11001010 )
b10100101000001111111111111100 .
b10101000 &
1(
b11001010 *
1-
b10100101000001111111111111100 /
1%
b10101000 '
13
#286
03
#288
b10 2
10
b10 1
b11001010 $
1"
b11001010 #
b10011000 '
b100000100001000000000000000100 /
b10 *
1%
b10011000 &
1-
b100000100001000000000000000100 .
1(
b10 )
13
#290
03
#292
b1011000 1
10
b1011000 2
b10 #
1"
b10 $
b10001100100010010000000000000000 .
b10011100 &
1-
b10001100100010010000000000000000 /
1%
b10011100 '
13
#294
03
#296
b1011000 2
10
b1011000 1
b10100000 '
b1000010010100000000100000 /
b1011000 *
1%
b10100000 &
1-
b1000010010100000000100000 .
1(
b1011000 )
13
#298
03
#300
b11110001 1
10
b11110001 2
b1011000 #
1"
b1011000 $
13
#302
03
#304
b101000011 2
10
b101000011 1
b1111001 $
1"
b1111001 #
b10100100 '
b100000101001011111111111111111 /
b11110001 *
1%
b10100100 &
1-
b100000101001011111111111111111 .
1(
b11110001 )
13
#306
03
#308
b1 1
10
b1 2
b11110001 #
1"
b11110001 $
b101000011 )
b10100101000001111111111111100 .
b10101000 &
1(
b101000011 *
1-
b10100101000001111111111111100 /
1%
b10101000 '
13
#310
03
15
#312
b1 2
10
b1 1
1,
b101000011 $
1+
1"
b101000011 #
b10011000 '
b100000100001000000000000000100 /
b1 *
1%
b10011000 &
1-
b100000100001000000000000000100 .
1(
b1 )
13
#314
03
#316
b1011100 1
10
b1011100 2
0+
0,
b1 #
1"
b1 $
b10001100100010010000000000000000 .
b1000 &
1-
b10001100100010010000000000000000 /
1%
b1000 '
13
#318
03
05
#320
b1011100 2
10
b1011100 1
b1100 '
b1000000000110100110100000000000 /
b1011100 *
1%
b1100 &
1-
b1000000000110100110100000000000 .
1(
b1011100 )
13
#322
03
#324
b10000000000000000000000000000000 1
10
b10000000000000000000000000000000 2
b1011100 #
1"
b1011100 $
b110011010110110000000000001100 .
b10000 &
1-
b110011010110110000000000001100 /
1%
b10000 '
13
#326
03
#328
b0 2
10
b0 1
b100010101 $
1"
b100010101 #
b10100 '
b10001111011110110000000000100000 /
b10000000000000000000000000000000 *
1%
b10100 &
1-
b10001111011110110000000000100000 .
1(
b10000000000000000000000000000000 )
13
#330
03
#332
b100000 1
10
b100000 2
b10000000000000000000000000000000 #
1"
b10000000000000000000000000000000 $
b0 )
b0 .
b11000 &
1(
b0 *
1-
b0 /
1%
b11000 '
13
#334
03
#336
b0 2
10
b0 1
b0 $
1"
b0 #
b11100 '
b11011000000000000000001000 /
b100000 *
1%
b11100 &
1-
b11011000000000000000001000 .
1(
b100000 )
13
#338
03
#340
b110000 1
10
b110000 2
b110000 #
1"
b110000 $
b0 )
b0 .
b110000 &
1(
b0 *
1-
b0 /
1%
b110000 '
13
#342
03
#344
b0 2
10
b0 1
b0 $
1"
b0 #
b110100 '
b110000 *
1%
b110100 &
1(
b110000 )
13
#346
03
#348
b110000 #
1"
b110000 $
b0 )
b1000010000000000000000000011000 .
b111000 &
1(
b0 *
1-
b1000010000000000000000000011000 /
1%
b111000 '
13
#350
03
#352
b0 $
1"
b0 #
b10011000 '
b0 /
1%
b10011000 &
1-
b0 .
13
#354
03
#356
b10001100100010010000000000000000 .
b10011100 &
1-
b10001100100010010000000000000000 /
1%
b10011100 '
13
#358
03
#360
b1011100 2
10
b1011100 1
b10100000 '
b1000010010100000000100000 /
1%
b10100000 &
1-
b1000010010100000000100000 .
13
#362
03
#364
b110111100 1
10
b110111100 2
b1011100 )
1(
b1011100 *
13
#366
03
#368
b1001011000 2
10
b1001011000 1
b100010101 $
1"
b100010101 #
b10100100 '
b100000101001011111111111111111 /
b110111100 *
1%
b10100100 &
1-
b100000101001011111111111111111 .
1(
b110111100 )
13
#370
03
#372
b0 1
10
b0 2
b110111100 #
1"
b110111100 $
b1001011000 )
b10100101000001111111111111100 .
b10101000 &
1(
b1001011000 *
1-
b10100101000001111111111111100 /
1%
b10101000 '
13
#374
03
#376
b0 2
10
b0 1
b1001011000 $
1"
b1001011000 #
b10101100 '
b100000100001000000000000000100 /
b0 *
1%
b10101100 &
1-
b100000100001000000000000000100 .
1(
b0 )
13
#378
03
#380
b1100000 1
10
b1100000 2
b0 #
1"
b0 $
b10001100000010000000000001001000 .
b10110000 &
1-
b10001100000010000000000001001000 /
1%
b10110000 '
13
#382
03
#384
b1001000 2
10
b1001000 1
b10110100 '
b10001100000010010000000001001100 /
b1100000 *
1%
b10110100 &
1-
b10001100000010010000000001001100 .
1(
b1100000 )
13
#386
03
#388
b1001100 1
10
b1001100 2
b1100000 #
1"
b1100000 $
b1001000 )
b1000000000000000000000011101 .
b10111000 &
1(
b1001000 *
1-
b1000000000000000000000011101 /
1%
b10111000 '
13
#390
03
#392
b0 2
10
b0 1
b10 $
1"
b10 #
b1110100 '
b1000010010100000000100000 /
b1001100 *
1%
b1110100 &
1-
b1000010010100000000100000 .
1(
b1001100 )
13
#394
03
#396
b10000000000000000000000000000001 1
10
b10000000000000000000000000000001 2
b1111111111111111111111111111111 #
1"
b1111111111111111111111111111111 $
b0 )
b100000000010000000000000001111 .
b1111000 &
1(
b0 *
1-
b100000000010000000000000001111 /
1%
b1111000 '
13
#398
03
#400
b1111 2
10
b1111 1
b0 $
1"
b0 #
b1000 '
b1000000100010000110000000000000 /
b10000000000000000000000000000001 *
1%
b1000 &
1-
b1000000100010000110000000000000 .
1(
b10000000000000000000000000000001 )
13
#402
03
#404
b1100010 1
10
b1100010 2
b10000000000000000000000000000001 #
1"
b10000000000000000000000000000001 $
b1111 )
b1000000000110100110100000000000 .
b1100 &
1(
b1111 *
1-
b1000000000110100110100000000000 /
1%
b1100 '
13
#406
03
#408
b1100 2
10
b1100 1
b1111 $
1"
b1111 #
b10000 '
b110011010110110000000000001100 /
b1100010 *
1%
b10000 &
1-
b110011010110110000000000001100 .
1(
b1100010 )
13
#410
03
#412
b1100 1
10
b1100 2
b1100010 #
1"
b1100010 $
b1100 )
b10001111011110110000000000100000 .
b10100 &
1(
b1100 *
1-
b10001111011110110000000000100000 /
1%
b10100 '
13
#414
03
#416
b101100 2
10
b101100 1
b1100 $
1"
b1100 #
b11000 '
b0 /
1%
b11000 &
1-
b0 .
13
#418
03
#420
b0 1
10
b0 2
b101100 )
b11011000000000000000001000 .
b11100 &
1(
b101100 *
1-
b11011000000000000000001000 /
1%
b11100 '
13
#422
03
#424
b1101000 2
10
b1101000 1
b1101000 $
1"
b1101000 #
b1101000 '
b0 /
b0 *
1%
b1101000 &
1-
b0 .
1(
b0 )
13
#426
03
#428
b0 1
10
b0 2
b0 #
1"
b0 $
b1101000 )
b1101100 &
1(
b1101000 *
1%
b1101100 '
13
#430
03
#432
b1101000 $
1"
b1101000 #
b1110000 '
b1000000000000000000000101111 /
b0 *
1%
b1110000 &
1-
b1000000000000000000000101111 .
1(
b0 )
13
#434
03
#436
b0 #
1"
b0 $
b0 .
b10111100 &
1-
b0 /
1%
b10111100 '
13
#438
03
#440
b11000000 '
b1000000000000000000000101111 /
1%
b11000000 &
1-
b1000000000000000000000101111 .
13
#442
03
#444
b0 .
b10111100 &
1-
b0 /
1%
b10111100 '
13
#446
03
#448
b11000000 '
b1000000000000000000000101111 /
1%
b11000000 &
1-
b1000000000000000000000101111 .
13
#450
03
#452
b0 .
b10111100 &
1-
b0 /
1%
b10111100 '
13
#454
03
#456
b11000000 '
b1000000000000000000000101111 /
1%
b11000000 &
1-
b1000000000000000000000101111 .
13
#458
03
#460
b0 .
b10111100 &
1-
b0 /
1%
b10111100 '
13
